lab_7/a.vcd
$date
	Tue Apr 16 03:26:31 2019
$end
$version
	Icarus Verilog
$end
$timescale
	1s
$end
$scope module rd_test $end
$var wire 8 ! r [7:0] $end
$var wire 8 " q [7:0] $end
$var wire 1 # done_tick $end
$var reg 1 $ clk $end
$var reg 1 % reset $end
$var reg 1 & start $end
$var reg 8 ' x [7:0] $end
$var reg 8 ( y [7:0] $end
$scope module rd1 $end
$var wire 1 $ clk $end
$var wire 1 # done $end
$var wire 8 ) quotient [7:0] $end
$var wire 8 * remainder [7:0] $end
$var wire 1 % reset $end
$var wire 1 & start $end
$var wire 8 + x [7:0] $end
$var wire 8 , y [7:0] $end
$var reg 1 - done_tick $end
$var reg 8 . q [7:0] $end
$var reg 1 / qbit $end
$var reg 8 0 r [7:0] $end
$var reg 8 1 r1 [7:0] $end
$var reg 8 2 rnext [7:0] $end
$var integer 32 3 count [31:0] $end
$var integer 32 4 z [31:0] $end
$var integer 32 5 z1 [31:0] $end
$upscope $end
$upscope $end
$enddefinitions $end
#0
$dumpvars
bx 5
bx 4
bx 3
bx 2
bx 1
bx 0
x/
bx .
x-
bx ,
bx +
bx *
bx )
bx (
bx '
x&
0%
0$
x#
bx "
bx !
$end
#20
1$
#40
0$
#60
1$
#80
b0 0
b0 "
b0 )
b0 .
0/
0#
0-
b0 3
0$
1%
#100
1$
#120
0$
#140
1$
#160
0$
#180
1$
#200
0$
#220
1$
#240
0$
#260
1$
#280
0$
0%
#300
1$
#320
0$
#340
1$
#360
0$
#380
1$
#400
0$
#420
1$
#440
0$
#460
1$
#480
0$
b1000 '
b1000 +
b1101 (
b1101 ,
1&
#500
b1 3
b1000 2
1$
#520
0$
#540
b11111111111111111111111111111001 5
b11 !
b11 *
b11 1
b11 3
b10 "
b10 )
b10 .
b110 2
0/
b11 4
b1000 0
0&
1$
#560
0$
#580
1/
b1011 5
b1100 !
b1100 *
b1100 1
b101 3
b1001 "
b1001 )
b1001 .
b1011 2
b11111111111111111111111111111111 4
b110 0
1$
#600
0$
#620
b101 5
b1001 !
b1001 *
b1001 1
b111 3
b100111 "
b100111 )
b100111 .
b101 2
b1001 4
1/
b1011 0
1$
#640
0$
#660
1#
1-
b111 5
b1010 !
b1010 *
b1010 1
b0 3
b10011101 "
b10011101 )
b10011101 .
b111 2
b11111111111111111111111111111101 4
1/
b101 0
1$
